^E:\DOCUMENTS\MINDORCHARD\TOWERDEFENCE\COCOS2D\COCOS\AUDIO\PROJ.WIN32\DEBUG.WIN32\MCIPLAYER.OBJ|E:\DOCUMENTS\MINDORCHARD\TOWERDEFENCE\COCOS2D\COCOS\AUDIO\PROJ.WIN32\DEBUG.WIN32\SIMPLEAUDIOENGINE.OBJ
/OUT:"E:\DOCUMENTS\MINDORCHARD\TOWERDEFENCE\PROJ.WIN32\DEBUG.WIN32\LIBAUDIO.LIB" /NOLOGO DEBUG.WIN32\MCIPLAYER.OBJDEBUG.WIN32\SIMPLEAUDIOENGINE.OBJ
^E:\DOCUMENTS\MINDORCHARD\TOWERDEFENCEPUBLIC\COCOS2D\COCOS\AUDIO\PROJ.WIN32\DEBUG.WIN32\MCIPLAYER.OBJ|E:\DOCUMENTS\MINDORCHARD\TOWERDEFENCEPUBLIC\COCOS2D\COCOS\AUDIO\PROJ.WIN32\DEBUG.WIN32\SIMPLEAUDIOENGINE.OBJ
/OUT:"E:\DOCUMENTS\MINDORCHARD\TOWERDEFENCEPUBLIC\PROJ.WIN32\DEBUG.WIN32\LIBAUDIO.LIB" /NOLOGO DEBUG.WIN32\MCIPLAYER.OBJDEBUG.WIN32\SIMPLEAUDIOENGINE.OBJ
