^E:\DOCUMENTS\MINDORCHARD\TOWERDEFENCE\PROJ.WIN32\DEBUG.WIN32\APPDELEGATE.OBJ|E:\DOCUMENTS\MINDORCHARD\TOWERDEFENCE\PROJ.WIN32\DEBUG.WIN32\GAME.RES|E:\DOCUMENTS\MINDORCHARD\TOWERDEFENCE\PROJ.WIN32\DEBUG.WIN32\GAMEOBJ.OBJ|E:\DOCUMENTS\MINDORCHARD\TOWERDEFENCE\PROJ.WIN32\DEBUG.WIN32\GAMESCENE.OBJ|E:\DOCUMENTS\MINDORCHARD\TOWERDEFENCE\PROJ.WIN32\DEBUG.WIN32\HELLOWORLDSCENE.OBJ|E:\DOCUMENTS\MINDORCHARD\TOWERDEFENCE\PROJ.WIN32\DEBUG.WIN32\LIBAUDIO.LIB|E:\DOCUMENTS\MINDORCHARD\TOWERDEFENCE\PROJ.WIN32\DEBUG.WIN32\LIBCHIPMUNK.LIB|E:\DOCUMENTS\MINDORCHARD\TOWERDEFENCE\PROJ.WIN32\DEBUG.WIN32\LIBCOCOS2D.LIB|E:\DOCUMENTS\MINDORCHARD\TOWERDEFENCE\PROJ.WIN32\DEBUG.WIN32\MAIN.OBJ|E:\DOCUMENTS\MINDORCHARD\TOWERDEFENCE\PROJ.WIN32\DEBUG.WIN32\MYNODE.OBJ
/OUT:"E:\DOCUMENTS\MINDORCHARD\TOWERDEFENCE\PROJ.WIN32\DEBUG.WIN32\TOWERDEFENCE.EXE" /INCREMENTAL /NOLOGO /LIBPATH:E:\Documents\MindOrchard\TowerDefence\proj.win32\Debug.win32\ /LIBPATH:E:\Documents\MindOrchard\TowerDefence\proj.win32\Debug.win32\ opengl32.lib glew32.lib libzlib.lib libpng.lib libjpeg.lib libtiff.lib libwebp.lib libiconv.lib glfw3.lib freetype250.lib winmm.lib ws2_32.lib kernel32.lib user32.lib gdi32.lib winspool.lib comdlg32.lib advapi32.lib shell32.lib ole32.lib oleaut32.lib uuid.lib odbc32.lib odbccp32.lib /MANIFEST /MANIFESTUAC:"level='asInvoker' uiAccess='false'" /manifest:embed /DEBUG /PDB:"E:\DOCUMENTS\MINDORCHARD\TOWERDEFENCE\PROJ.WIN32\DEBUG.WIN32\TOWERDEFENCE.PDB" /SUBSYSTEM:WINDOWS /TLBID:1 /DYNAMICBASE /NXCOMPAT /IMPLIB:"E:\DOCUMENTS\MINDORCHARD\TOWERDEFENCE\PROJ.WIN32\DEBUG.WIN32\TOWERDEFENCE.LIB" /MACHINE:X86 /SAFESEH DEBUG.WIN32\GAME.RESDEBUG.WIN32\APPDELEGATE.OBJDEBUG.WIN32\HELLOWORLDSCENE.OBJDEBUG.WIN32\GAMESCENE.OBJDEBUG.WIN32\GAMEOBJ.OBJDEBUG.WIN32\MYNODE.OBJDEBUG.WIN32\MAIN.OBJE:\DOCUMENTS\MINDORCHARD\TOWERDEFENCE\PROJ.WIN32\DEBUG.WIN32\LIBCOCOS2D.LIBE:\DOCUMENTS\MINDORCHARD\TOWERDEFENCE\PROJ.WIN32\DEBUG.WIN32\LIBAUDIO.LIBE:\DOCUMENTS\MINDORCHARD\TOWERDEFENCE\PROJ.WIN32\DEBUG.WIN32\LIBCHIPMUNK.LIB
^E:\DOCUMENTS\MINDORCHARD\TOWERDEFENCEPUBLIC\PROJ.WIN32\DEBUG.WIN32\APPDELEGATE.OBJ|E:\DOCUMENTS\MINDORCHARD\TOWERDEFENCEPUBLIC\PROJ.WIN32\DEBUG.WIN32\GAME.RES|E:\DOCUMENTS\MINDORCHARD\TOWERDEFENCEPUBLIC\PROJ.WIN32\DEBUG.WIN32\GAMEOBJ.OBJ|E:\DOCUMENTS\MINDORCHARD\TOWERDEFENCEPUBLIC\PROJ.WIN32\DEBUG.WIN32\GAMESCENE.OBJ|E:\DOCUMENTS\MINDORCHARD\TOWERDEFENCEPUBLIC\PROJ.WIN32\DEBUG.WIN32\HELLOWORLDSCENE.OBJ|E:\DOCUMENTS\MINDORCHARD\TOWERDEFENCEPUBLIC\PROJ.WIN32\DEBUG.WIN32\LIBAUDIO.LIB|E:\DOCUMENTS\MINDORCHARD\TOWERDEFENCEPUBLIC\PROJ.WIN32\DEBUG.WIN32\LIBCHIPMUNK.LIB|E:\DOCUMENTS\MINDORCHARD\TOWERDEFENCEPUBLIC\PROJ.WIN32\DEBUG.WIN32\LIBCOCOS2D.LIB|E:\DOCUMENTS\MINDORCHARD\TOWERDEFENCEPUBLIC\PROJ.WIN32\DEBUG.WIN32\MAIN.OBJ|E:\DOCUMENTS\MINDORCHARD\TOWERDEFENCEPUBLIC\PROJ.WIN32\DEBUG.WIN32\MYNODE.OBJ|E:\DOCUMENTS\MINDORCHARD\TOWERDEFENCEPUBLIC\PROJ.WIN32\DEBUG.WIN32\PANZOOMLAYER.OBJ|E:\DOCUMENTS\MINDORCHARD\TOWERDEFENCEPUBLIC\PROJ.WIN32\DEBUG.WIN32\PLAYEROBJ.OBJ
/OUT:"E:\DOCUMENTS\MINDORCHARD\TOWERDEFENCEPUBLIC\PROJ.WIN32\DEBUG.WIN32\TOWERDEFENCE.EXE" /INCREMENTAL /NOLOGO /LIBPATH:E:\Documents\MindOrchard\TowerDefencePublic\proj.win32\Debug.win32\ /LIBPATH:E:\Documents\MindOrchard\TowerDefencePublic\proj.win32\Debug.win32\ opengl32.lib glew32.lib libzlib.lib libpng.lib libjpeg.lib libtiff.lib libwebp.lib libiconv.lib glfw3.lib freetype250.lib winmm.lib ws2_32.lib kernel32.lib user32.lib gdi32.lib winspool.lib comdlg32.lib advapi32.lib shell32.lib ole32.lib oleaut32.lib uuid.lib odbc32.lib odbccp32.lib /MANIFEST /MANIFESTUAC:"level='asInvoker' uiAccess='false'" /manifest:embed /DEBUG /PDB:"E:\DOCUMENTS\MINDORCHARD\TOWERDEFENCEPUBLIC\PROJ.WIN32\DEBUG.WIN32\TOWERDEFENCE.PDB" /SUBSYSTEM:WINDOWS /TLBID:1 /DYNAMICBASE /NXCOMPAT /IMPLIB:"E:\DOCUMENTS\MINDORCHARD\TOWERDEFENCEPUBLIC\PROJ.WIN32\DEBUG.WIN32\TOWERDEFENCE.LIB" /MACHINE:X86 /SAFESEH DEBUG.WIN32\GAME.RESDEBUG.WIN32\APPDELEGATE.OBJDEBUG.WIN32\HELLOWORLDSCENE.OBJDEBUG.WIN32\GAMESCENE.OBJDEBUG.WIN32\GAMEOBJ.OBJDEBUG.WIN32\MYNODE.OBJDEBUG.WIN32\PANZOOMLAYER.OBJDEBUG.WIN32\PLAYEROBJ.OBJDEBUG.WIN32\MAIN.OBJE:\DOCUMENTS\MINDORCHARD\TOWERDEFENCEPUBLIC\PROJ.WIN32\DEBUG.WIN32\LIBCOCOS2D.LIBE:\DOCUMENTS\MINDORCHARD\TOWERDEFENCEPUBLIC\PROJ.WIN32\DEBUG.WIN32\LIBAUDIO.LIBE:\DOCUMENTS\MINDORCHARD\TOWERDEFENCEPUBLIC\PROJ.WIN32\DEBUG.WIN32\LIBCHIPMUNK.LIB
