^E:\DOCUMENTS\MINDORCHARD\TOWERDEFENCE\PROJ.WIN32\GAME.RC
/D _UNICODE /D UNICODE /l"0x0409" /nologo /fo"DEBUG.WIN32\GAME.RES" GAME.RC /D _UNICODE /D UNICODE /l"0x0409" /nologo /fo"DEBUG.WIN32\GAME.RES" E:\DOCUMENTS\MINDORCHARD\TOWERDEFENCE\PROJ.WIN32\GAME.RC
^E:\DOCUMENTS\MINDORCHARD\TOWERDEFENCEPUBLIC\PROJ.WIN32\GAME.RC
/D _UNICODE /D UNICODE /l"0x0409" /nologo /fo"DEBUG.WIN32\GAME.RES" GAME.RC /D _UNICODE /D UNICODE /l"0x0409" /nologo /fo"DEBUG.WIN32\GAME.RES" E:\DOCUMENTS\MINDORCHARD\TOWERDEFENCEPUBLIC\PROJ.WIN32\GAME.RC
